<?xml version="1.0" encoding="utf-8"?>
<!-- Generator: Adobe Illustrator 22.0.1, SVG Export Plug-In . SVG Version: 6.00 Build 0)  -->
<svg version="1.1" id="Calque_1" xmlns="http://www.w3.org/2000/svg" xmlns:xlink="http://www.w3.org/1999/xlink" x="0px" y="0px"
	 viewBox="0 0 266.5 106.6" style="enable-background:new 0 0 266.5 106.6;" xml:space="preserve">
<style type="text/css">
	.st0{fill:#020203;}
	.st1{fill:none;}
</style>
<g>
	<path class="st0" d="M54.6,74.4v24.1H17.7v-0.7h6.3V8.9h-6.3V8.2h35.7v24.1h-0.7c0-21-7.9-22.6-18.1-22.6v38.3v3.4
		c9.4,0,10.1-6.8,10.1-16.6h0.7v33.5h-0.7c0-9.8-0.7-16.2-10.1-16.2v5.3v36.1v3.1c9.8,0,18.8-2.2,18.8-22.9L54.6,74.4L54.6,74.4z"/>
	<path class="st0" d="M99.4,97.6c9.8,0,18.8-3.1,18.8-23.3h1.2v24.1H82.5v-0.7h6.3V8.9h-6.3V8.2h23.7v0.7h-6.3v34.2L99.4,97.6
		L99.4,97.6z"/>
	<path class="st0" d="M164.4,97.6c9.8,0,18.8-3.1,18.8-23.3h0.7v24.1H147v-0.7h6.3V8.9H147V8.2h23.7v0.7h-6.3v34.2L164.4,97.6
		L164.4,97.6z"/>
	<path class="st0" d="M248.6,74.4v24.1h-36.9v-0.7h6.3V8.9h-6.3V8.2h35.7v24.1h-0.7c0-21-7.9-22.6-18.1-22.6v38.3v3.4
		c9.4,0,10.1-6.8,10.1-16.6h1.5v33.5h-0.7c0-9.8-0.7-16.2-10.1-16.2v5.3v36.1v3.1c9.8,0,18.8-2.2,18.8-22.9L248.6,74.4L248.6,74.4z"
		/>
</g>
<rect class="st1" width="266.5" height="106.6"/>
</svg>
