[
    {
        "key": "group_5e206af563dfd",
        "title": "Editors Shop",
        "fields": [
            {
                "key": "field_5e206b2ec9310",
                "label": "Editors Shop listing",
                "name": "editors_shop_listing",
                "type": "repeater",
                "instructions": "",
                "required": 1,
                "conditional_logic": 0,
                "wrapper": {
                    "width": "",
                    "class": "",
                    "id": ""
                },
                "collapsed": "",
                "min": 0,
                "max": 0,
                "layout": "table",
                "button_label": "",
                "sub_fields": [
                    {
                        "key": "field_5e206db09e7eb",
                        "label": "Brand name",
                        "name": "brand_name",
                        "type": "text",
                        "instructions": "",
                        "required": 1,
                        "conditional_logic": 0,
                        "wrapper": {
                            "width": "",
                            "class": "",
                            "id": ""
                        },
                        "default_value": "",
                        "placeholder": "",
                        "prepend": "",
                        "append": "",
                        "maxlength": ""
                    },
                    {
                        "key": "field_5e206dcd9e7ed",
                        "label": "Product url",
                        "name": "product_url",
                        "type": "url",
                        "instructions": "",
                        "required": 1,
                        "conditional_logic": 0,
                        "wrapper": {
                            "width": "",
                            "class": "",
                            "id": ""
                        },
                        "default_value": "",
                        "placeholder": ""
                    },
                    {
                        "key": "field_5e206ee8f0085",
                        "label": "Product image",
                        "name": "product_image",
                        "type": "image",
                        "instructions": "",
                        "required": 1,
                        "conditional_logic": 0,
                        "wrapper": {
                            "width": "",
                            "class": "",
                            "id": ""
                        },
                        "return_format": "array",
                        "preview_size": "medium",
                        "library": "all",
                        "min_width": "",
                        "min_height": "",
                        "min_size": "",
                        "max_width": "",
                        "max_height": "",
                        "max_size": "",
                        "mime_types": ""
                    },
                    {
                        "key": "field_5e206f69e66ca",
                        "label": "Product category",
                        "name": "product_category",
                        "type": "checkbox",
                        "instructions": "",
                        "required": 1,
                        "conditional_logic": 0,
                        "wrapper": {
                            "width": "",
                            "class": "",
                            "id": ""
                        },
                        "choices": {
                            "Fashion": "Fashion",
                            "Beauty": "Beauty",
                            "Food": "Food",
                            "Lifestyle": "Lifestyle"
                        },
                        "allow_custom": 0,
                        "save_custom": 0,
                        "default_value": [],
                        "layout": "vertical",
                        "toggle": 0,
                        "return_format": "value"
                    }
                ]
            }
        ],
        "location": [
            [
                {
                    "param": "post_type",
                    "operator": "==",
                    "value": "editors-shop"
                }
            ]
        ],
        "menu_order": 0,
        "position": "acf_after_title",
        "style": "default",
        "label_placement": "top",
        "instruction_placement": "label",
        "hide_on_screen": [
            "the_content",
            "excerpt",
            "custom_fields",
            "discussion",
            "comments",
            "revisions",
            "slug",
            "author",
            "format",
            "page_attributes",
            "featured_image",
            "categories",
            "tags",
            "send-trackbacks"
        ],
        "active": 1,
        "description": ""
    }
]